{
  "main": {
    "id": "7ade51ace6afef96",
    "type": "split",
    "children": [
      {
        "id": "342d9b918f5ed7d5",
        "type": "tabs",
        "children": [
          {
            "id": "a9f916f7ebe289c9",
            "type": "leaf",
            "state": {
              "type": "markdown",
              "state": {
                "file": "Main.md",
                "mode": "preview",
                "source": false
              }
            }
          }
        ]
      }
    ],
    "direction": "vertical"
  },
  "left": {
    "id": "4abf1c2a2c825295",
    "type": "split",
    "children": [
      {
        "id": "96862d5485e8b1f8",
        "type": "tabs",
        "children": [
          {
            "id": "ad77d2074b6f69d7",
            "type": "leaf",
            "state": {
              "type": "file-explorer",
              "state": {
                "sortOrder": "alphabetical"
              }
            }
          },
          {
            "id": "ef522262e77c192f",
            "type": "leaf",
            "state": {
              "type": "search",
              "state": {
                "query": "tag:#Проекты",
                "matchingCase": false,
                "explainSearch": false,
                "collapseAll": false,
                "extraContext": false,
                "sortOrder": "alphabetical"
              }
            }
          },
          {
            "id": "2f50b5f1c28f6c4f",
            "type": "leaf",
            "state": {
              "type": "bookmarks",
              "state": {}
            }
          }
        ]
      }
    ],
    "direction": "horizontal",
    "width": 300
  },
  "right": {
    "id": "c4a3b4857767ab5c",
    "type": "split",
    "children": [
      {
        "id": "bed5df19e41f580b",
        "type": "tabs",
        "children": [
          {
            "id": "58af0c9e0d7883b4",
            "type": "leaf",
            "state": {
              "type": "calendar",
              "state": {}
            }
          },
          {
            "id": "1fddd926b671035b",
            "type": "leaf",
            "state": {
              "type": "outline",
              "state": {
                "file": "Main.md"
              }
            }
          },
          {
            "id": "d7d494fac853a0af",
            "type": "leaf",
            "state": {
              "type": "backlink",
              "state": {
                "file": "Main.md",
                "collapseAll": false,
                "extraContext": false,
                "sortOrder": "alphabetical",
                "showSearch": false,
                "searchQuery": "",
                "backlinkCollapsed": false,
                "unlinkedCollapsed": true
              }
            }
          },
          {
            "id": "473d7bcf0ad93cf7",
            "type": "leaf",
            "state": {
              "type": "outgoing-link",
              "state": {
                "file": "Main.md",
                "linksCollapsed": false,
                "unlinkedCollapsed": true
              }
            }
          },
          {
            "id": "4e56142282c73d1f",
            "type": "leaf",
            "state": {
              "type": "tag",
              "state": {
                "sortOrder": "frequency",
                "useHierarchy": true
              }
            }
          },
          {
            "id": "f2bcdb204aacc76c",
            "type": "leaf",
            "state": {
              "type": "advanced-tables-toolbar",
              "state": {}
            }
          }
        ]
      }
    ],
    "direction": "horizontal",
    "width": 300
  },
  "left-ribbon": {
    "hiddenItems": {
      "switcher:Меню быстрого перехода": false,
      "graph:Граф": false,
      "canvas:Создать новый холст": false,
      "daily-notes:Сегодняшняя заметка": false,
      "templates:Вставить шаблон": false,
      "command-palette:Открыть палитру команд": false
    }
  },
  "active": "a9f916f7ebe289c9",
  "lastOpenFiles": [
    "Проекты/Lifter/Код лифтера.md",
    "Проекты/Lifter/Код лифтера.url",
    "Проекты/Lifter/New shortcut.lnk",
    "Проекты/Lifter/LifterCode/New shortcut.lnk",
    "Проекты/Lifter/LifterCode/Файлы/normalMode.md",
    "Проекты/Lifter/LifterCode/Файлы/lifter_obj.h.md",
    "Проекты/Lifter/LifterCode/Файлы/LifterSstatuses.md",
    "Проекты/Lifter/LifterCode/Файлы/hBridge.md",
    "Проекты/Lifter/LifterCode/Файлы/errorHandler.md",
    "Проекты/Lifter/LifterCode/Файлы/endstopMode.md",
    "Проекты/Lifter/LifterCode/Файлы/encoderControlMode.md",
    "Проекты/Lifter/LifterCode/Файлы/emergencyMode.md",
    "Проекты/Lifter/LifterCode/Файлы/controlCommunication.md",
    "Проекты/Lifter/LifterCode/Описание/Режимы.md",
    "Проекты/Lifter/LifterCode/Файлы",
    "Проекты/Lifter/LifterCode/Описание",
    "Проекты/Lifter/LifterCode",
    "Проекты/Lifter/Lifter.md",
    "Проекты/Lifter/Код лифтера/Файлы/normalMode.md",
    "Проекты/Lifter/Код лифтера/Файлы/lifter_obj.h.md",
    "Проекты/Lifter/Код лифтера/Файлы/LifterSstatuses.md",
    "Проекты/Lifter/Код лифтера/Файлы/hBridge.md",
    "Проекты/Lifter/Код лифтера/Файлы/errorHandler.md",
    "Проекты/Lifter/Код лифтера/Файлы/endstopMode.md",
    "Проекты/Lifter/Код лифтера/Файлы/encoderControlMode.md",
    "Проекты/Lifter/Код лифтера/Файлы/emergencyMode.md",
    "Проекты/Lifter/Код лифтера/Файлы/controlCommunication.md",
    "Проекты/Lifter/Код лифтера/Описание/Режимы.md",
    "Проекты/Lifter/Код лифтера/Файлы",
    "Проекты/Lifter/Код лифтера/Описание",
    "Проекты/Lifter/Код лифтера",
    "Calendar/2024-05-24.md",
    "Circuitjs/Стабилитрон.md",
    "Circuitjs/Операционник.md",
    "Calendar",
    "Files/изображение-20240508-062753.png",
    "Files/Pasted image 20240521111340.png",
    "Files/Pasted image 20240522140947.png",
    "Files/Pasted image 20240522140143.png",
    "Files/Pasted image 20240522135650.png",
    "Files/Pasted image 20240522135245.png",
    "Files/Pasted image 20240522135200.png",
    "Files/Pasted image 20240522134658.png",
    "Files/Pasted image 20240522134239.png",
    "Files/Pasted image 20240522134044.png"
  ]
}