{
  "hidden": true,
  "hiddenList": [
    "Files",
    "Корзина",
    "Проекты/Lifter/Проблемма с перезапуском smt32/Проблемма с перезапуском smt32.md",
    "Проекты/Lifter/Lifter.md",
    "Цацки/Цацки.md",
    "Библиотеки STM32/Библиотеки STM32.md",
    "Проекты/Lifter/Код лифтера",
    "Проекты/Lifter/LifterCode"
  ]
}